<svg xmlns="http://www.w3.org/2000/svg" viewBox="0 0 2.1714 2.0264">
  <defs>
    <style>
      .cls-1 {
        fill: #1a171b;
      }
    </style>
  </defs>
  <title>Ресурс 3</title>
  <g id="Слой_2" data-name="Слой 2">
    <g id="layer_1" data-name="layer 1">
      <g>
        <path class="cls-1" d="M1.9903,1.2764a.23728.23728,0,0,0,.04-.1318.20681.20681,0,0,0-.4136,0,.23736.23736,0,0,0,.0401.1318.39179.39179,0,0,0-.1421.165l-.0835-.0146a.40743.40743,0,0,0-.1787-.2998.23274.23274,0,0,0,.04-.1319A.19883.19883,0,0,0,1.0855.791.19873.19873,0,0,0,.8789.9951.23852.23852,0,0,0,.919,1.128a.40915.40915,0,0,0-.1797.2988l-.0825.0146a.41178.41178,0,0,0-.1421-.165.23375.23375,0,0,0,.0405-.1318A.199.199,0,0,0,.3482.9395a.19931.19931,0,0,0-.2071.2051.23736.23736,0,0,0,.0401.1318A.4044.4044,0,0,0,0,1.6035c0,.1739.1333.2823.3482.2823H.3604a1.6317,1.6317,0,0,0,.7251.1406,1.6293,1.6293,0,0,0,.7251-.1406h.0127c.2148,0,.3481-.1084.3481-.2823A.40456.40456,0,0,0,1.9903,1.2764Zm-.167-.2705a.1334.1334,0,0,1,.1411.1387.14175.14175,0,1,1-.2818,0A.13335.13335,0,0,1,1.8233,1.0059ZM1.0855.8565a.1342.1342,0,0,1,.1411.1386.15027.15027,0,0,1-.1411.1582A.1502.1502,0,0,1,.9444.9951.1342.1342,0,0,1,1.0855.8565Zm-.1211.3203a.19273.19273,0,0,0,.2427,0,.33369.33369,0,0,1,.1572.2412,2.34955,2.34955,0,0,0-.5576,0A.334.334,0,0,1,.9644,1.1768ZM.3482,1.0059a.13367.13367,0,0,1,.1411.1387.15.15,0,0,1-.1411.1572.1499.1499,0,0,1-.1411-.1572A.13367.13367,0,0,1,.3482,1.0059Zm-.2823.5976a.334.334,0,0,1,.1612-.2783.19655.19655,0,0,0,.1211.043.19765.19765,0,0,0,.1211-.043.32545.32545,0,0,1,.122.1309C.3819,1.5078.23,1.5948.23,1.7139a.15346.15346,0,0,0,.0396.0996A.21222.21222,0,0,1,.0659,1.6035Zm.23.1104c0-.1172.3242-.2471.7896-.2471s.7895.1299.7895.2471c0,.1162-.3242.2471-.7895.2471S.2959,1.8301.2959,1.7139Zm1.6055.0996a.15334.15334,0,0,0,.0395-.0996c0-.1191-.1518-.2061-.3613-.2578a.32967.32967,0,0,1,.1226-.1309.19273.19273,0,0,0,.2427,0,.33478.33478,0,0,1,.1606.2783A.21255.21255,0,0,1,1.9014,1.8135Z"/>
        <path class="cls-1" d="M.3203.6543.3491.791a.03456.03456,0,0,0,.023.0254A.03343.03343,0,0,0,.4048.8076L.5313.6778A.382.382,0,0,0,.8531.4932a.41522.41522,0,0,0,.1113.041l.0942.1436a.03389.03389,0,0,0,.0547,0L1.2075.5342a.45047.45047,0,0,0,.1114-.041.38058.38058,0,0,0,.3218.1846l.1259.1298a.03512.03512,0,0,0,.0235.0098l.0092-.001A.03419.03419,0,0,0,1.8223.791L1.8511.6543a.28354.28354,0,0,0,.2217-.249c0-.1504-.1734-.2734-.3872-.2734a.5056.5056,0,0,0-.2334.0547A.39719.39719,0,0,0,1.0855,0,.39753.39753,0,0,0,.7188.1866.50083.50083,0,0,0,.4859.1319c-.2134,0-.3872.123-.3872.2734A.28355.28355,0,0,0,.3203.6543ZM.4859.1973A.41388.41388,0,0,1,.7178.2627a.03322.03322,0,0,0,.0303.003A.03494.03494,0,0,0,.7686.2432.31087.31087,0,0,1,1.0855.0655a.31134.31134,0,0,1,.3174.1777.03213.03213,0,0,0,.02.0225.03153.03153,0,0,0,.0307-.003.4154.4154,0,0,1,.232-.0654c.1772,0,.3213.0937.3213.208,0,.083-.0757.1582-.1934.1914a.03155.03155,0,0,0-.0229.0244L1.7705.7168,1.6792.6231A.03115.03115,0,0,0,1.6573.6133.302.302,0,0,1,1.3682.4366a.0365.0365,0,0,0-.02-.0235L1.3365.4112A.03112.03112,0,0,0,1.3179.417a.37671.37671,0,0,1-.1372.0557.03241.03241,0,0,0-.0205.0146L1.086.5996,1.0117.4873A.033.033,0,0,0,.9908.4727.36081.36081,0,0,1,.854.417.03433.03433,0,0,0,.8233.4141a.03373.03373,0,0,0-.02.0225A.30159.30159,0,0,1,.5142.6133.02955.02955,0,0,0,.4927.6231L.4009.7168.3809.6211A.03167.03167,0,0,0,.3579.5967C.2403.5635.1646.4883.1646.4053.1646.291.3086.1973.4859.1973Z"/>
        <path class="cls-1" d="M.3863.4346H.4361V.4834a.0327.0327,0,1,0,.0654,0V.4346H.5508A.0335.0335,0,0,0,.584.4014.03287.03287,0,0,0,.5508.3682H.5015V.3194a.0327.0327,0,1,0-.0654,0V.3682H.3863A.03284.03284,0,0,0,.3535.4014.03349.03349,0,0,0,.3863.4346Z"/>
        <path class="cls-1" d="M1.6201.4346h.0494V.4834a.03318.03318,0,0,0,.0332.0332A.03282.03282,0,0,0,1.7354.4834V.4346h.0493A.03384.03384,0,0,0,1.8179.4014.03318.03318,0,0,0,1.7847.3682H1.7354V.3194A.03282.03282,0,0,0,1.7027.2862a.03318.03318,0,0,0-.0332.0332V.3682H1.6201a.03282.03282,0,0,0-.0327.0332A.03347.03347,0,0,0,1.6201.4346Z"/>
        <path class="cls-1" d="M1.0034.3272h.0494V.377a.033.033,0,1,0,.0659,0V.3272H1.168a.03275.03275,0,1,0,0-.0655H1.1187V.2119a.033.033,0,0,0-.0659,0V.2617H1.0034a.03275.03275,0,0,0,0,.0655Z"/>
      </g>
    </g>
  </g>
</svg>
