<svg xmlns="http://www.w3.org/2000/svg" viewBox="0 0 2.1714 1.9688">
  <defs>
    <style>
      .cls-1 {
        fill: #1a171b;
      }
    </style>
  </defs>
  <title>Ресурс 5</title>
  <g id="Слой_2" data-name="Слой 2">
    <g id="layer_1" data-name="layer 1">
      <g>
        <path class="cls-1" d="M.4346.3848A.03347.03347,0,0,0,.4019.3516H.2954a.0332.0332,0,1,0,0,.0664H.4019A.03347.03347,0,0,0,.4346.3848Z"/>
        <path class="cls-1" d="M.9341.418h.1064a.0332.0332,0,0,0,0-.0664H.9341a.0332.0332,0,0,0,0,.0664Z"/>
        <path class="cls-1" d="M1.5728.418h.1064a.0332.0332,0,0,0,0-.0664H1.5728a.0332.0332,0,0,0,0,.0664Z"/>
        <path class="cls-1" d="M1.2534.418h.1065a.0332.0332,0,0,0,0-.0664H1.2534a.0332.0332,0,0,0,0,.0664Z"/>
        <path class="cls-1" d="M.7212.3516H.6148a.0332.0332,0,0,0,0,.0664H.7212a.0332.0332,0,0,0,0-.0664Z"/>
        <path class="cls-1" d="M1.0532.6309H.9214A.09914.09914,0,0,0,.8228.7305V.8613A.09923.09923,0,0,0,.9214.961h.1318A.09964.09964,0,0,0,1.1519.8613V.7305A.09955.09955,0,0,0,1.0532.6309ZM1.086.8613a.03293.03293,0,0,1-.0328.0333H.9214A.033.033,0,0,1,.8882.8613V.7305A.03293.03293,0,0,1,.9214.6973h.1318A.03284.03284,0,0,1,1.086.7305Z"/>
        <path class="cls-1" d="M.9873.7627a.0332.0332,0,1,0,0,.0664.0332.0332,0,0,0,0-.0664Z"/>
        <path class="cls-1" d="M.5459.6309H.4146A.09957.09957,0,0,0,.3155.7305V.8613A.09965.09965,0,0,0,.4146.961H.5459A.09965.09965,0,0,0,.645.8613V.7305A.09957.09957,0,0,0,.5459.6309ZM.5791.8613A.03327.03327,0,0,1,.5459.8946H.4146A.033.033,0,0,1,.3814.8613V.7305A.03287.03287,0,0,1,.4146.6973H.5459A.03318.03318,0,0,1,.5791.7305Z"/>
        <path class="cls-1" d="M1.3296.7305V.8613A.09929.09929,0,0,0,1.4282.961h.1319A.09955.09955,0,0,0,1.6587.8613V.7305A.09947.09947,0,0,0,1.5601.6309H1.4282A.09921.09921,0,0,0,1.3296.7305Zm.0659,0A.03282.03282,0,0,1,1.4282.6973h.1319a.03282.03282,0,0,1,.0327.0332V.8613a.03291.03291,0,0,1-.0327.0333H1.4282A.03291.03291,0,0,1,1.3955.8613Z"/>
        <path class="cls-1" d="M.5459,1.168H.4146a.09871.09871,0,0,0-.0991.0986v.1319a.09878.09878,0,0,0,.0991.0986H.5459A.09878.09878,0,0,0,.645,1.3985V1.2666A.09871.09871,0,0,0,.5459,1.168Zm.0332.2305a.03325.03325,0,0,1-.0332.0332H.4146a.03293.03293,0,0,1-.0332-.0332V1.2666a.03266.03266,0,0,1,.0332-.0322H.5459a.033.033,0,0,1,.0332.0322Z"/>
        <path class="cls-1" d="M1.0532,1.168H.9214a.09829.09829,0,0,0-.0986.0986v.1319a.09835.09835,0,0,0,.0986.0986h.1318a.09876.09876,0,0,0,.0987-.0986V1.2666A.09869.09869,0,0,0,1.0532,1.168Zm.0328.2305a.03291.03291,0,0,1-.0328.0332H.9214a.033.033,0,0,1-.0332-.0332V1.2666a.03273.03273,0,0,1,.0332-.0322h.1318a.03263.03263,0,0,1,.0328.0322Z"/>
        <path class="cls-1" d="M1.9741,1.1084V.2188A.1322.1322,0,0,0,1.8423.0869H1.6782V.0332a.033.033,0,1,0-.0659,0V.0869H1.3491V.0332a.033.033,0,1,0-.0659,0V.0869H1.02V.0332A.03282.03282,0,0,0,.9873,0,.03331.03331,0,0,0,.9541.0332V.0869H.6909V.0332A.03282.03282,0,0,0,.6582,0,.03331.03331,0,0,0,.625.0332V.0869H.3623V.0332A.03325.03325,0,0,0,.3291,0,.03289.03289,0,0,0,.2964.0332V.0869H.1319A.13228.13228,0,0,0,0,.2188V1.6387a.13162.13162,0,0,0,.1319.1318H1.3101a.47509.47509,0,1,0,.664-.6621ZM.1319,1.7051a.06641.06641,0,0,1-.066-.0664V.418H.0825a.0332.0332,0,0,0,0-.0664H.0659V.2188A.06558.06558,0,0,1,.1319.1533H.2964V.208A.0327.0327,0,0,0,.3291.2403.03307.03307,0,0,0,.3623.208V.1533H.625V.208A.03313.03313,0,0,0,.6582.2403.03263.03263,0,0,0,.6909.208V.1533H.9541V.208A.03313.03313,0,0,0,.9873.2403.03263.03263,0,0,0,1.02.208V.1533h.2632V.208a.033.033,0,0,0,.0659,0V.1533h.2632V.208a.033.033,0,0,0,.0659,0V.1533h.1641a.06555.06555,0,0,1,.0659.0655V.3516H1.8921a.0332.0332,0,0,0,0,.0664h.0161v.6504a.45729.45729,0,0,0-.2124-.0508.47481.47481,0,0,0-.4253.6875Zm1.5639.1982a.41015.41015,0,1,1,.4102-.4101A.4105.4105,0,0,1,1.6958,1.9033Z"/>
        <path class="cls-1" d="M1.9068,1.46H1.729V1.2383a.033.033,0,1,0-.0659,0v.2549a.03289.03289,0,0,0,.0327.0332h.211a.0332.0332,0,0,0,0-.0664Z"/>
        <path class="cls-1" d="M.48,1.2998a.03275.03275,0,1,0,.0332.0323A.03263.03263,0,0,0,.48,1.2998Z"/>
      </g>
    </g>
  </g>
</svg>
